{
  "_class": "symbolInstance",
  "do_objectID": "2BB9FAAF-A0AC-40F7-A96F-617827599008",
  "exportOptions": {
    "_class": "exportOptions",
    "exportFormats": [
    ],
    "includedLayerIds": [
    ],
    "layerOptions": 0,
    "shouldTrim": false
  },
  "frame": {
    "_class": "rect",
    "constrainProportions": false,
    "height": 72,
    "width": 258,
    "x": 0,
    "y": 456
  },
  "horizontalSpacing": 0,
  "isFlippedHorizontal": false,
  "isFlippedVertical": false,
  "isLocked": false,
  "isVisible": true,
  "layerListExpandedType": 0,
  "masterInfluenceEdgeMaxXPadding": 0,
  "masterInfluenceEdgeMaxYPadding": 0,
  "masterInfluenceEdgeMinXPadding": 0,
  "masterInfluenceEdgeMinYPadding": 0,
  "name": "issuable-sidebar--expanded/molecules/text/",
  "nameIsFixed": true,
  "overrides": {
    "3FEFE840-9026-4451-AC1A-28662B8210DA": {
      "587ABEDB-84AA-488F-ACD6-BBD68090C7C7": "3",
      "8C0BE2BD-7105-4AB3-B5F5-4CB0F38CB976": "Milestone",
      "8CE36429-A4E8-405A-A148-C7BDCE19E87C": "Weight",
      "symbolID": "DD62A3EC-2AEC-4C55-BA8B-2CC40AF18869"
    }
  },
  "resizingConstraint": 63,
  "resizingType": 0,
  "rotation": 0,
  "shouldBreakMaskChain": false,
  "style": {
    "_class": "style",
    "endDecorationType": 0,
    "miterLimit": 10,
    "startDecorationType": 0
  },
  "symbolID": "84B41D35-AE39-4BB1-BF0E-658CC11AB7DC",
  "verticalSpacing": 0
}