{
  "_class": "symbolInstance",
  "do_objectID": "364F2E1D-6632-47E5-93C5-60A7AA0744C5",
  "exportOptions": {
    "_class": "exportOptions",
    "exportFormats": [
    ],
    "includedLayerIds": [
    ],
    "layerOptions": 0,
    "shouldTrim": false
  },
  "frame": {
    "_class": "rect",
    "constrainProportions": false,
    "height": 48,
    "width": 258,
    "x": 0,
    "y": 608
  },
  "horizontalSpacing": 0,
  "isFlippedHorizontal": false,
  "isFlippedVertical": false,
  "isLocked": false,
  "isVisible": true,
  "layerListExpandedType": 0,
  "masterInfluenceEdgeMaxXPadding": 0,
  "masterInfluenceEdgeMaxYPadding": 0,
  "masterInfluenceEdgeMinXPadding": 0,
  "masterInfluenceEdgeMinYPadding": 0,
  "name": "issuable__sidebar/expanded/notifications/",
  "nameIsFixed": true,
  "overrides": {
    "2F5696D1-B29B-4A2E-BAED-1E14B139A37A": {
      "symbolID": "685E00B8-3366-440A-BE67-6E27E8D93735"
    }
  },
  "resizingConstraint": 63,
  "resizingType": 0,
  "rotation": 0,
  "shouldBreakMaskChain": false,
  "style": {
    "_class": "style",
    "endDecorationType": 0,
    "miterLimit": 10,
    "startDecorationType": 0
  },
  "symbolID": "7E80EB07-C892-4726-BB41-4B52F87A3B34",
  "verticalSpacing": 0
}