{
  "_class": "symbolInstance",
  "do_objectID": "2EAE22EC-8FA8-4865-8C1F-7918A0FB85B4",
  "exportOptions": {
    "_class": "exportOptions",
    "exportFormats": [
    ],
    "includedLayerIds": [
    ],
    "layerOptions": 0,
    "shouldTrim": false
  },
  "frame": {
    "_class": "rect",
    "constrainProportions": false,
    "height": 32,
    "width": 47,
    "x": 371,
    "y": 0
  },
  "horizontalSpacing": 0,
  "isFlippedHorizontal": false,
  "isFlippedVertical": false,
  "isLocked": false,
  "isVisible": true,
  "layerListExpandedType": 0,
  "masterInfluenceEdgeMaxXPadding": 65,
  "masterInfluenceEdgeMaxYPadding": 520,
  "masterInfluenceEdgeMinXPadding": 674,
  "masterInfluenceEdgeMinYPadding": 256,
  "name": "topbar/molecules/badge",
  "nameIsFixed": true,
  "overrides": {
    "39A06CA2-25FE-4779-AFCE-444708E7914D": {
      "symbolID": "822F7D5B-F21C-4784-90F7-B3ED993B7664"
    },
    "DCC27D08-1795-4A83-8654-E1B9EEF67636": {
      "24B2D9F4-B2D3-475A-BEAB-A508BB82D7B4": "3",
      "A5DA60E8-BF10-4216-B002-7255CA8C30DD": {
        "symbolID": "07D8F633-1F02-4C78-8387-BADBB7F368FC"
      },
      "E4B3B66A-8773-408F-9D46-4CA7C03FD1AC": {
        "symbolID": "E4C2256F-8585-4D9B-B84A-C8C501BE9A6D"
      }
    },
    "F8918A14-C3A6-41AD-B604-5B0D5E4A267E": {
      "45D85E86-3F15-4530-AB33-7A4216134B7A": {
        "symbolID": "B317526B-A873-4024-958F-38CA946FD846"
      },
      "symbolID": "99BD3E1B-B3D0-43AA-8B2F-77EEB6E92D31"
    }
  },
  "resizingConstraint": 63,
  "resizingType": 0,
  "rotation": 0,
  "shouldBreakMaskChain": false,
  "style": {
    "_class": "style",
    "endDecorationType": 0,
    "miterLimit": 10,
    "startDecorationType": 0
  },
  "symbolID": "320BC548-BB25-40F7-B16A-7018EA46B9E9",
  "verticalSpacing": 0
}