{
  "_class": "group",
  "do_objectID": "889295FA-E18A-4C01-92A5-D38D4A144A51",
  "exportOptions": {
    "_class": "exportOptions",
    "exportFormats": [
    ],
    "includedLayerIds": [
    ],
    "layerOptions": 0,
    "shouldTrim": false
  },
  "frame": {
    "_class": "rect",
    "constrainProportions": false,
    "height": 625,
    "width": 1448,
    "x": 11,
    "y": 0
  },
  "hasClickThrough": false,
  "isFlippedHorizontal": false,
  "isFlippedVertical": false,
  "isLocked": false,
  "isVisible": true,
  "layerListExpandedType": 2,
  "layers": [
    {
      "class": "shapeGroup",
      "id": "DA14CCF2-B776-4699-82D3-372CF3CD6539"
    },
    {
      "class": "shapeGroup",
      "id": "806CF199-47CA-47AF-BEA0-01E8EE24CBE2"
    },
    {
      "class": "shapeGroup",
      "id": "8B26FFF3-50CE-4E2A-B7E9-36691E2202E3"
    }
  ],
  "name": "timeline-unit-weekendday-bg",
  "nameIsFixed": true,
  "resizingConstraint": 63,
  "resizingType": 0,
  "rotation": 0,
  "shouldBreakMaskChain": false,
  "style": {
    "_class": "style",
    "endDecorationType": 0,
    "miterLimit": 10,
    "startDecorationType": 0
  }
}