<?xml version="1.0" encoding="UTF-8"?>
<svg width="16px" height="16px" viewBox="0 0 16 16" version="1.1" xmlns="http://www.w3.org/2000/svg" xmlns:xlink="http://www.w3.org/1999/xlink">
    <!-- Generator: Sketch 64 (93537) - https://sketch.com -->
    <title>icn/italic</title>
    <desc>Created with Sketch.</desc>
    <g id="icn/italic" stroke="none" stroke-width="1" fill="none" fill-rule="evenodd">
        <polygon id="icon" fill="#000000" points="5.5 2 13 2 12.5 4 10 4 8 12 11 12 10.5 14 3 14 3.5 12 6 12 8 4 5 4"></polygon>
    </g>
</svg>