{
  "_class": "shapePath",
  "booleanOperation": -1,
  "do_objectID": "FC1BB108-1FA8-4A6E-8157-5C3807BD039D",
  "edited": true,
  "exportOptions": {
    "_class": "exportOptions",
    "exportFormats": [
    ],
    "includedLayerIds": [
    ],
    "layerOptions": 0,
    "shouldTrim": false
  },
  "frame": {
    "_class": "rect",
    "constrainProportions": false,
    "height": 2,
    "width": 6,
    "x": 4,
    "y": 0
  },
  "isFlippedHorizontal": false,
  "isFlippedVertical": false,
  "isLocked": false,
  "isVisible": true,
  "layerListExpandedType": 0,
  "name": "Path",
  "nameIsFixed": false,
  "path": {
    "_class": "path",
    "isClosed": true,
    "pointRadiusBehaviour": 1,
    "points": [
      {
        "_class": "curvePoint",
        "cornerRadius": 0,
        "curveFrom": "{0.16666666666666666, 0}",
        "curveMode": 4,
        "curveTo": "{0.074619208361534461, 5.072653133236333e-17}",
        "hasCurveFrom": false,
        "hasCurveTo": true,
        "point": "{0.16666666666666666, 0}"
      },
      {
        "_class": "curvePoint",
        "cornerRadius": 0,
        "curveFrom": "{0.92538079163846554, -5.072653133236333e-17}",
        "curveMode": 4,
        "curveTo": "{0.83333333333333337, 0}",
        "hasCurveFrom": true,
        "hasCurveTo": false,
        "point": "{0.83333333333333337, 0}"
      },
      {
        "_class": "curvePoint",
        "cornerRadius": 0,
        "curveFrom": "{1, 0.77614237491539662}",
        "curveMode": 2,
        "curveTo": "{1, 0.22385762508460322}",
        "hasCurveFrom": true,
        "hasCurveTo": true,
        "point": "{1, 0.49999999999999989}"
      },
      {
        "_class": "curvePoint",
        "cornerRadius": 0,
        "curveFrom": "{0.83333333333333337, 1}",
        "curveMode": 4,
        "curveTo": "{0.92538079163846554, 1}",
        "hasCurveFrom": false,
        "hasCurveTo": true,
        "point": "{0.83333333333333337, 1}"
      },
      {
        "_class": "curvePoint",
        "cornerRadius": 0,
        "curveFrom": "{0.074619208361534461, 1}",
        "curveMode": 4,
        "curveTo": "{0.16666666666666666, 1}",
        "hasCurveFrom": true,
        "hasCurveTo": false,
        "point": "{0.16666666666666666, 1}"
      },
      {
        "_class": "curvePoint",
        "cornerRadius": 0,
        "curveFrom": "{0, 0.22385762508460344}",
        "curveMode": 2,
        "curveTo": "{0, 0.77614237491539684}",
        "hasCurveFrom": true,
        "hasCurveTo": true,
        "point": "{0, 0.50000000000000011}"
      }
    ]
  },
  "resizingConstraint": 63,
  "resizingType": 0,
  "rotation": 0,
  "shouldBreakMaskChain": false
}