{
  "_class": "shapeGroup",
  "clippingMaskMode": 0,
  "do_objectID": "957702F4-43FF-4AA6-85C6-94E9D35E83EC",
  "exportOptions": {
    "_class": "exportOptions",
    "exportFormats": [
    ],
    "includedLayerIds": [
    ],
    "layerOptions": 0,
    "shouldTrim": false
  },
  "frame": {
    "_class": "rect",
    "constrainProportions": false,
    "height": 32,
    "width": 32,
    "x": 0,
    "y": 0
  },
  "hasClickThrough": false,
  "hasClippingMask": false,
  "isFlippedHorizontal": false,
  "isFlippedVertical": false,
  "isLocked": false,
  "isVisible": true,
  "layerListExpandedType": 1,
  "layers": [
    {
      "class": "rectangle",
      "id": "4A4D1653-2FEF-4077-B4CE-A65AA0017618"
    }
  ],
  "name": "fill/greys/$black :: 000000",
  "nameIsFixed": true,
  "resizingConstraint": 63,
  "resizingType": 0,
  "rotation": 0,
  "shouldBreakMaskChain": false,
  "style": {
    "sharedObjectID": "FBAAE206-1B7D-4559-A64D-AF713EE8FE68"
  },
  "windingRule": 1
}